{
  "products": [
    {
      "id": "1190012575-000118005456",
      "source": "ALMVB",
      "description": "SeCe-IT Grundvertrag",
      "isCustomerVisible": true,
      "name": "000118005456",
      "productOrderItem": [
        {
          "orderItemId": "000118005456",
          "productOrderId": "000118005456",
          "role": "SeCe-IT Grundvertrag",
          "@baseType": "SeCe-IT Grundvertrag item"
        }
      ],
      "relatedParty": [
        {
          "id": "1190012575",
          "role": "crmtCustomer"
        }
      ],
      "status": "active",
      "productRelationship": [
        {
          "relationshipType": "hasPart",
          "product": {
            "id": "1190012575-000118005456-400073",
            "source": "ALMVB",
            "isCustomerVisible": true,
            "name": "Digitalisierungsbox Smart",
            "orderDate": "2018-10-19T00:00:00Z",
            "productSerialNumber": "26427",
            "startDate": "2019-01-14T00:00:00Z",
            "terminationDate": "2024-12-31T00:00:00Z",
            "billingAccount": {
              "id": "211619077230"
            },
            "productOffering": {},
            "productPrice": [
              {
                "price": {
                  "taxRate": 19,
                  "taxIncludedAmount": {
                    "unit": "EUR",
                    "value": 21.36
                  },
                  "dutyFreeAmount": {
                    "unit": "EUR",
                    "value": 17.95
                  }
                }
              }
            ],
            "productOrderItem": [
              {
                "orderItemId": "400073",
                "productOrderId": "400073",
                "role": "SeCe-IT Vertrag"
              }
            ],
            "relatedParty": [
              {
                "id": "1190012575",
                "role": "crmtCustomer"
              },
              {
                "id": "1557001143",
                "role": "bearbeiter"
              }
            ],
            "status": "active",
            "productTerm": [
              {
                "name": "Preispflichtbeginn",
                "validFor": {
                  "startDateTime": "2019-01-14T00:00:00Z"
                }
              },
              {
                "name": "Installationstermin",
                "validFor": {
                  "startDateTime": "2019-01-14T00:00:00Z"
                }
              },
              {
                "name": "Vertragsende",
                "validFor": {
                  "endDateTime": "2021-12-31T00:00:00Z"
                }
              },
              {
                "name": "Kündigung Wirksam zum",
                "validFor": {
                  "startDateTime": "2024-12-31T00:00:00Z"
                }
              },
              {
                "name": "zusaetzliche Monate Laufzeit",
                "duration": {
                  "amount": 3,
                  "units": "Y"
                }
              }
            ],
            "place": [
              {
                "id": "21089718",
                "name": "Heinrich Deichmann-Schuhe GmbH",
                "externalIdentifier": [
                  {
                    "id": "001323",
                    "externalIdentifierType": "standort.ok",
                    "owner": "SeCe-IT"
                  }
                ],
                "city": "Xanten",
                "postcode": "46509",
                "streetName": "Sonsbecker Str.",
                "streetNr": "21"
              }
            ],
            "productRelationship": [
              {
                "relationshipType": "hasPart",
                "product": {
                  "id": "1190012575-000118005456-400073-000021",
                  "isCustomerVisible": true,
                  "name": "Digitalisierungsbox Smart",
                  "orderDate": "2018-10-19T00:00:00Z",
                  "productSerialNumber": "26427",
                  "productOffering": {
                    "id": ""
                  },
                  "productPrice": [
                    {
                      "price": {
                        "taxRate": 19,
                        "taxIncludedAmount": {
                          "unit": "EUR",
                          "value": 7.35
                        },
                        "dutyFreeAmount": {
                          "unit": "EUR",
                          "value": 6.18
                        }
                      }
                    }
                  ],
                  "productOrderItem": [
                    {
                      "orderItemId": "400073",
                      "productOrderId": "000001"
                    }
                  ],
                  "externalIdentifier": [
                    {
                      "id": "000021",
                      "externalIdentifierType": "positionsnummer",
                      "owner": "SeCe-IT"
                    }
                  ],
                  "productCharacteristic": [
                    {
                      "name": "servicelevel",
                      "@baseType": "Characteristic",
                      "@type": "StringCharacteristic",
                      "value": "S24"
                    }
                  ],
                  "quantity": 1
                }
              },
              {
                "relationshipType": "hasPart",
                "product": {
                  "id": "1190012575-000118005456-400073-000022",
                  "isCustomerVisible": true,
                  "name": "LTE (4G) Erweiterungsgerät für  Router b",
                  "orderDate": "2018-10-19T00:00:00Z",
                  "productSerialNumber": "26389",
                  "productOffering": {
                    "id": ""
                  },
                  "productPrice": [
                    {
                      "price": {
                        "taxRate": 19,
                        "taxIncludedAmount": {
                          "unit": "EUR",
                          "value": 14.01
                        },
                        "dutyFreeAmount": {
                          "unit": "EUR",
                          "value": 11.77
                        }
                      }
                    }
                  ],
                  "productOrderItem": [
                    {
                      "orderItemId": "400073",
                      "productOrderId": "000001"
                    }
                  ],
                  "externalIdentifier": [
                    {
                      "id": "000022",
                      "externalIdentifierType": "positionsnummer",
                      "owner": "SeCe-IT"
                    }
                  ],
                  "productCharacteristic": [
                    {
                      "name": "servicelevel",
                      "@baseType": "Characteristic",
                      "@type": "StringCharacteristic",
                      "value": "S24"
                    }
                  ],
                  "quantity": 1
                }
              }
            ],
            "externalIdentifier": [
              {
                "id": "400073",
                "externalIdentifierType": "SeCe-IT Vertrag",
                "owner": "SeCe-IT"
              }
            ],
            "productCharacteristic": [
              {
                "id": "status",
                "name": "Auftrag abgeschlossen",
                "@baseType": "Characteristic",
                "@type": "StringCharacteristic",
                "value": "0990"
              },
              {
                "name": "auftragsart",
                "@baseType": "Characteristic",
                "@type": "StringCharacteristic",
                "value": "ZM"
              },
              {
                "name": "vertragsart",
                "@baseType": "Characteristic",
                "@type": "StringCharacteristic",
                "value": "MIET"
              },
              {
                "name": "geschaeftsvorfall",
                "@baseType": "Characteristic",
                "@type": "StringCharacteristic",
                "value": "KUEN"
              },
              {
                "name": "netzplanvorgangsnummer",
                "@baseType": "Characteristic",
                "@type": "StringCharacteristic",
                "value": "90000012631032"
              },
              {
                "name": "Open Orders",
                "@baseType": "Characteristic",
                "@type": "StringCharacteristic",
                "value": "0"
              },
              {
                "name": "Grus",
                "@baseType": "Characteristic",
                "@type": "StringCharacteristic",
                "value": "211619077230"
              }
            ]
          }
        }
      ],
      "externalIdentifier": [
        {
          "id": "000118005456",
          "externalIdentifierType": "SeCe-IT Grundvertrag",
          "owner": "SeCe-IT"
        }
      ]
    }
  ],
  "paging": {
    "total": 1278,
    "page": 2,
    "lastPage": 1278
  },
  "links": {
    "self": "/product?sort=+startDate&offset=2&limit=1",
    "first": "/product?sort=+startDate&offset=1&limit=1",
    "prev": "/product?sort=+startDate&offset=1&limit=1",
    "next": "/product?sort=+startDate&offset=3&limit=1",
    "last": "/product?sort=+startDate&offset=1278&limit=1"
  }
}